<svg xmlns="http://www.w3.org/2000/svg" xmlns:xlink="http://www.w3.org/1999/xlink" width="26" height="20" viewBox="0 0 26 20">
  <defs>
    <clipPath id="clip-Artboard_1">
      <rect width="26" height="20"/>
    </clipPath>
  </defs>
  <g id="Artboard_1" data-name="Artboard – 1" clip-path="url(#clip-Artboard_1)">
    <path id="checked" d="M.3,14a.967.967,0,0,1,0-1.4l1.4-1.4a.967.967,0,0,1,1.4,0l.1.1,5.5,5.9a.483.483,0,0,0,.7,0L22.8,3.3h.1a.967.967,0,0,1,1.4,0l1.4,1.4a.967.967,0,0,1,0,1.4h0L9.7,22.7a.967.967,0,0,1-1.4,0L.5,14.3.3,14Z" transform="translate(0 -3)" fill="#44c43a"/>
  </g>
</svg>
