<?xml version="1.0" encoding="utf-8"?>
<!-- Generator: Adobe Illustrator 21.1.0, SVG Export Plug-In . SVG Version: 6.00 Build 0)  -->
<svg version="1.1" id="Layer_1" xmlns="http://www.w3.org/2000/svg" xmlns:xlink="http://www.w3.org/1999/xlink" x="0px" y="0px"
	 viewBox="0 0 240.5 433.1" style="enable-background:new 0 0 240.5 433.1;" xml:space="preserve">
<style type="text/css">
	.st0{fill:#F5CD3B;}
	.st1{opacity:0.8;fill:#D8B33A;}
</style>
<g>
	<path class="st0" d="M131.8,150.4l62-97.7c1.9-3,6.5-1.1,5.8,2.4l-32.4,148.4c-0.3,1.5-1.6,2.5-3.1,2.5h-39.5c-2,0-3.5-1.8-3.1-3.8
		l9.9-50.7C131.5,151.1,131.6,150.7,131.8,150.4z"/>
	<path class="st0" d="M131,304.5l-24.3,92c-0.9,3.4,3.6,5.5,5.6,2.6l127.6-178.3c1.5-2.1,0-5-2.6-5h-51.4c-1.1,0-2.1,0.6-2.7,1.5
		l-51.8,86.3C131.2,303.9,131.1,304.2,131,304.5z"/>
	<path class="st1" d="M161.4,103.9c0,0-20.8,93.8-20.4,98.5l24.7,7.3h-50l19.5-64.5L161.4,103.9z"/>
	<polygon class="st1" points="121.6,342.2 215.5,215.8 185.9,215.8 131.6,302.2 	"/>
	<path class="st0" d="M79.1,255.8L35.4,428.4c-1,4.1,4.4,6.6,6.8,3.1l162.7-230.9c1.8-2.5,0-6-3.1-6h-74.3c-2.5,0-4.3-2.3-3.7-4.7
		L170,4.7c1-4.1-4.5-6.6-6.8-3L0.6,247.4c-1.7,2.6,0.2,6,3.3,5.9l71.4-2.2C77.8,251,79.7,253.4,79.1,255.8z"/>
</g>
</svg>
