<?xml version="1.0" encoding="utf-8"?>
<!-- Generator: Adobe Illustrator 23.0.3, SVG Export Plug-In . SVG Version: 6.00 Build 0)  -->
<svg version="1.1" id="Capa_1" xmlns="http://www.w3.org/2000/svg" xmlns:xlink="http://www.w3.org/1999/xlink" x="0px" y="0px"
	 viewBox="0 0 490.3 422.3" style="enable-background:new 0 0 490.3 422.3;" xml:space="preserve">
<style type="text/css">
	.st0{fill:#4F81BD;}
</style>
<g>
	<path class="st0" d="M0,211.2c0.6,10.1,7.3,18.6,17,21.5L196.6,287l6.6,123.8c0.3,4.9,3.6,9.2,8.3,10.8c1.3,0.5,2.7,0.7,4,0.7
		c3.5,0,6.8-1.4,9.2-4.1l63.5-70.3l90,62.3c4,2.8,8.7,4.3,13.6,4.3c11.3,0,21.1-8,23.5-19.2L490,14.6c0.9-4.4-0.8-9-4.2-11.8
		c-3.5-2.9-8.2-3.6-12.4-1.9l-459,186.8C5.1,191.9-0.6,201.1,0,211.2z M226,380.1l-4.1-78.1l46,31.8L226,380.1z M391.4,389.6
		L227.6,276.2L457.3,54L391.4,389.6z M432.1,44.2L205,263.9L25.6,209.7L432.1,44.2z"/>
</g>
</svg>
